Estadística Descriptiva - Procesamiento, limpieza y manipulación de datos en R
…
4.1 Seleccionar

Una vez tenemos claras cúales son las variables que nos interesan, las seleccionamos y almacenamos en una nueva base de datos. Esto debido que evitará confusiones y hará más eficiente nuestros analísis en términos de memoria.

En R base, el primer argumento dentro del bracket [] refiere a las filas y el segundo a las columnas.

elsoc_2022[ , 1] 

# A tibble: 1,000 × 1
   m0_sexo
   <chr>  
 1 Hombre 
 2 Mujer  
 3 Hombre 
 4 Hombre 
 5 Mujer  
 6 Mujer  
 7 Mujer  
 8 Mujer  
 9 Mujer  
10 Hombre 
# … with 990 more rows

También podemos seleccionar más de una columna/variable utilizando funciones básicas de R. Por ejemplo, usando c()

elsoc_2022[, c(1,2,4)] #aqui le decimos que queremos las columnas especificas 1 2 y 4 

# A tibble: 1,000 × 3
   m0_sexo m0_edad   c25
   <chr>     <dbl> <dbl>
 1 Hombre       38     1
 2 Mujer        45     1
 3 Hombre       42     3
 4 Hombre       29     1
 5 Mujer        53     2
 6 Mujer        52     3
 7 Mujer        50     2
 8 Mujer        57     1
 9 Mujer        47     1
10 Hombre       79     2
# … with 990 more rows

O bien, indicando desde qué columna hasta cuál quiero seleccionar.

elsoc_2022[, 1:4] # aqui le decimos que queremos desde la columna 1 a la 4

# A tibble: 1,000 × 4
   m0_sexo m0_edad   m36   c25
   <chr>     <dbl> <dbl> <dbl>
 1 Hombre       38     1     1
 2 Mujer        45     4     1
 3 Hombre       42     4     3
 4 Hombre       29     4     1
 5 Mujer        53     5     2
 6 Mujer        52     1     3
 7 Mujer        50     4     2
 8 Mujer        57     8     1
 9 Mujer        47     4     1
10 Hombre       79     4     2
# … with 990 more rows

Y, obviamente, podemos utilizar el nombre de las variables.

elsoc_2022[, c("m0_sexo", "m0_edad")]

# A tibble: 1,000 × 2
   m0_sexo m0_edad
   <chr>     <dbl>
 1 Hombre       38
 2 Mujer        45
 3 Hombre       42
 4 Hombre       29
 5 Mujer        53
 6 Mujer        52
 7 Mujer        50
 8 Mujer        57
 9 Mujer        47
10 Hombre       79
# … with 990 more rows
…
m0_sexo: sexo del entrevistado

m0_edad: edad del entrevistado

m13: ingreso mensual entrevistado

c25: preferencia entre autoritarismo y democracia

f05_01: justificación violencia hacia delincuentes

proc_elsoc <- elsoc_2022[, c(2,1,8,4,7)] # seleccionamos

proc_elsoc

# A tibble: 1,000 × 5
   m0_edad m0_sexo     m13   c25 f05_01
     <dbl> <chr>     <dbl> <dbl>  <dbl>
 1      38 Hombre  4000000     1     NA
 2      45 Mujer   2700000     1      3
 3      42 Hombre   600000     3     NA
 4      29 Hombre  1250000     1      1
 5      53 Mujer    500000     2      3
 6      52 Mujer        NA     3      2
 7      50 Mujer        NA     2      5
 8      57 Mujer         0     1      4
 9      47 Mujer    600000     1      3
10      79 Hombre       NA     2      1
# … with 990 more rows

colnames(proc_elsoc) <- c("edad", "sexo", "ingreso", "autor_democ", "jv_delincuentes") # renonbramos

proc_elsoc

# A tibble: 1,000 × 5
    edad sexo   ingreso autor_democ jv_delincuentes
   <dbl> <chr>    <dbl>       <dbl>           <dbl>
 1    38 Hombre 4000000           1              NA
 2    45 Mujer  2700000           1               3
 3    42 Hombre  600000           3              NA
 4    29 Hombre 1250000           1               1
 5    53 Mujer   500000           2               3
 6    52 Mujer       NA           3               2
 7    50 Mujer       NA           2               5
 8    57 Mujer        0           1               4
 9    47 Mujer   600000           1               3
10    79 Hombre      NA           2               1
# … with 990 more rows

Esta nueva base de datos sigue manteniendo los 1.000 casos/filas, pero ahora solo tiene 5 variables/columnas. ¿Qué pasa si solo quiero trabajar con un subconjunto de estos datos, por ejemplo, las mujeres mayores a 25 años? La respuesta es filtrar.

4.2 Filtrar

Tal y como regularmente no trabajamos con todas las variables de una base de datos, no siempre desearemos trabajar con todas las observaciones que tenemos en los datos. Habrá ocasiones (varias) en las que querremos trabajar con casos que cumplan ciertas condiciones; que sean de determinada edad, residencia, tiempo o que simplemente hayan respondido de determinada forma una pregunta.

Ahora, en vez de trabajar con columnas trabajaremos con las filas. Esto lo haremos especificando condiciones de las variables en el primer argumento de los brackets [].

proc_elsoc[proc_elsoc$autor_democ == 1, ] # indicamos que en nuestra base proc_elsoc, queremos que nos deje aquellos casos que cumplen con la condicion de que autor_democr sea 2

# A tibble: 552 × 5
    edad sexo   ingreso autor_democ jv_delincuentes
   <dbl> <chr>    <dbl>       <dbl>           <dbl>
 1    38 Hombre 4000000           1              NA
 2    45 Mujer  2700000           1               3
 3    29 Hombre 1250000           1               1
 4    57 Mujer        0           1               4
 5    47 Mujer   600000           1               3
 6    39 Hombre 1350000           1               4
 7    61 Mujer       NA           1               3
 8    25 Hombre      NA           1               2
 9    42 Hombre 1100000           1               4
10    51 Hombre  800000           1               1
# … with 542 more rows

Para indicarle a R que nos filtre aquellos casos que cumplen con la condición de ser iguales a 1 (autor_democ == 1), usamos el operador ==. ¿Y esto de dónde salió? recuerda que los operadores en R los vimos en la segunda sesión.

También podemos agregar muchas condiciones para filtrar nuestros datos. Solamente debemos agregarlo.

proc_elsoc[proc_elsoc$autor_democ == 1 & proc_elsoc$edad >= 25, ] # aqui le indicamos que nos filtre por casos que son autoritarismo/democracia igual 2 (no confia) y mayores o iguales a 25 años

# A tibble: 544 × 5
    edad sexo   ingreso autor_democ jv_delincuentes
   <dbl> <chr>    <dbl>       <dbl>           <dbl>
 1    38 Hombre 4000000           1              NA
 2    45 Mujer  2700000           1               3
 3    29 Hombre 1250000           1               1
 4    57 Mujer        0           1               4
 5    47 Mujer   600000           1               3
 6    39 Hombre 1350000           1               4
 7    61 Mujer       NA           1               3
 8    25 Hombre      NA           1               2
 9    42 Hombre 1100000           1               4
10    51 Hombre  800000           1               1
# … with 534 more rows

Pero, ¿y si tengo variables tipo character o factor? Tanto en R base como con dplyr podemos especificar condiciones y filtrar este tipo de datos usando las comillas " ".

proc_elsoc[proc_elsoc$sexo == "Mujer", ] 

# A tibble: 656 × 5
    edad sexo  ingreso autor_democ jv_delincuentes
   <dbl> <chr>   <dbl>       <dbl>           <dbl>
 1    45 Mujer 2700000           1               3
 2    53 Mujer  500000           2               3
 3    52 Mujer      NA           3               2
 4    50 Mujer      NA           2               5
 5    57 Mujer       0           1               4
 6    47 Mujer  600000           1               3
 7    61 Mujer      NA           1               3
 8    78 Mujer      NA           4               1
 9    65 Mujer      NA           1               1
10    69 Mujer      NA           2               1
# … with 646 more rows

¡Apliquémos conocimientos! Filtremos nuestros datos quedándonos solo con aquellos casos o personas que tengan o sean mayores a 25 años de edad.

proc_elsoc <- proc_elsoc[proc_elsoc$edad >= 25, ] 

proc_elsoc

# A tibble: 980 × 5
    edad sexo   ingreso autor_democ jv_delincuentes
   <dbl> <chr>    <dbl>       <dbl>           <dbl>
 1    38 Hombre 4000000           1              NA
 2    45 Mujer  2700000           1               3
 3    42 Hombre  600000           3              NA
 4    29 Hombre 1250000           1               1
 5    53 Mujer   500000           2               3
 6    52 Mujer       NA           3               2
 7    50 Mujer       NA           2               5
 8    57 Mujer        0           1               4
 9    47 Mujer   600000           1               3
10    79 Hombre      NA           2               1
# … with 970 more rows
…
El comando recode() generalmente sigue esta estructura:

car::recode(datos$variable, recodes = c('valor_orig1=nuevo_valor1;valor_org2=nuevo_valor2'))

Recodifiquemos la variable sexo e ingresos:

proc_elsoc$sexo <- car::recode(proc_elsoc$sexo, 
                               recodes = c("'Hombre' = 'Masculino'; 'Mujer' = 'Femenino'"))

proc_elsoc$ingreso <- car::recode(proc_elsoc$ingreso,
                                  recodes = c("-888 = NA; -999 = NA"))

proc_elsoc

# A tibble: 980 × 5
    edad sexo      ingreso autor_democ jv_delincuentes
   <dbl> <chr>       <dbl>       <dbl>           <dbl>
 1    38 Masculino 4000000           1              NA
 2    45 Femenino  2700000           1               3
 3    42 Masculino  600000           3              NA
 4    29 Masculino 1250000           1               1
 5    53 Femenino   500000           2               3
 6    52 Femenino       NA           3               2
 7    50 Femenino       NA           2               5
 8    57 Femenino        0           1               4
 9    47 Femenino   600000           1               3
10    79 Masculino      NA           2               1
# … with 970 more rows
…
proc_elsoc

# A tibble: 980 × 5
    edad sexo      ingreso autor_democ                                   jv_de…¹
   <dbl> <chr>       <dbl> <fct>                                         <fct>  
 1    38 Masculino 4000000 La democracia es preferible a cualquier otra… <NA>   
 2    45 Femenino  2700000 La democracia es preferible a cualquier otra… Alguna…
 3    42 Masculino  600000 A la gente como uno, nos da lo mismo un regi… <NA>   
 4    29 Masculino 1250000 La democracia es preferible a cualquier otra… Nunca  
 5    53 Femenino   500000 En algunas circunstancias, un gobierno autor… Alguna…
 6    52 Femenino       NA A la gente como uno, nos da lo mismo un regi… Pocas …
 7    50 Femenino       NA En algunas circunstancias, un gobierno autor… Siempre
 8    57 Femenino        0 La democracia es preferible a cualquier otra… Muchas…
 9    47 Femenino   600000 La democracia es preferible a cualquier otra… Alguna…
10    79 Masculino      NA En algunas circunstancias, un gobierno autor… Nunca  
# … with 970 more rows, and abbreviated variable name ¹​jv_delincuentes
…
¿Y si no sabemos qué variables o columnas tienen casos pérdidos? Una forma es usar la función colSums().

colSums(is.na(proc_elsoc))

           edad            sexo         ingreso     autor_democ jv_delincuentes 
              0               0             435              13              67 

Una vez identificamos los valores nulos, podemos proceder a removerlos de la base de datos. El comando na.omit() eliminará todas las filas que presenten casos perdidos.

proc_elsoc <- na.omit(proc_elsoc)

proc_elsoc

# A tibble: 496 × 5
    edad sexo      ingreso autor_democ                                   jv_de…¹
   <dbl> <chr>       <dbl> <fct>                                         <fct>  
 1    45 Femenino  2700000 La democracia es preferible a cualquier otra… Alguna…
 2    29 Masculino 1250000 La democracia es preferible a cualquier otra… Nunca  
 3    53 Femenino   500000 En algunas circunstancias, un gobierno autor… Alguna…
 4    57 Femenino        0 La democracia es preferible a cualquier otra… Muchas…
 5    47 Femenino   600000 La democracia es preferible a cualquier otra… Alguna…
 6    39 Masculino 1350000 La democracia es preferible a cualquier otra… Muchas…
 7    42 Masculino 1100000 La democracia es preferible a cualquier otra… Muchas…
 8    51 Masculino  800000 La democracia es preferible a cualquier otra… Nunca  
 9    38 Masculino 1600000 A la gente como uno, nos da lo mismo un regi… Alguna…
10    45 Femenino   500000 La democracia es preferible a cualquier otra… Nunca  
# … with 486 more rows, and abbreviated variable name ¹​jv_delincuentes
…
Generemos nuevas variables para edad e ingresos dejándolas como tramos con ifelse().

proc_elsoc$tramo_edad <- ifelse(proc_elsoc$edad <= 29, "Jovenes", proc_elsoc$edad)
proc_elsoc$tramo_edad <- ifelse(proc_elsoc$edad >= 30 & proc_elsoc$edad <= 59, "Adultos", proc_elsoc$tramo_edad)
proc_elsoc$tramo_edad <- ifelse(proc_elsoc$edad >= 60, "Adultos mayores", proc_elsoc$tramo_edad)

proc_elsoc$tramo_ingreso <- ifelse(proc_elsoc$ingreso <= 250000, "Tramo 1", proc_elsoc$ingreso)
proc_elsoc$tramo_ingreso <- ifelse(proc_elsoc$ingreso > 250000 & proc_elsoc$ingreso <= 500000, "Tramo 2", proc_elsoc$tramo_ingreso)
proc_elsoc$tramo_ingreso <- ifelse(proc_elsoc$ingreso > 500000 & proc_elsoc$ingreso <= 750000, "Tramo 3", proc_elsoc$tramo_ingreso)
proc_elsoc$tramo_ingreso <- ifelse(proc_elsoc$ingreso > 750000 & proc_elsoc$ingreso <= 1000000, "Tramo 4", proc_elsoc$tramo_ingreso)
proc_elsoc$tramo_ingreso <- ifelse(proc_elsoc$ingreso > 1000000, "Tramo 5", proc_elsoc$tramo_ingreso)

proc_elsoc

# A tibble: 496 × 7
    edad sexo      ingreso autor_democ                   jv_de…¹ tramo…² tramo…³
   <dbl> <chr>       <dbl> <fct>                         <fct>   <chr>   <chr>  
 1    45 Femenino  2700000 La democracia es preferible … Alguna… Adultos Tramo 5
 2    29 Masculino 1250000 La democracia es preferible … Nunca   Jovenes Tramo 5
 3    53 Femenino   500000 En algunas circunstancias, u… Alguna… Adultos Tramo 2
 4    57 Femenino        0 La democracia es preferible … Muchas… Adultos Tramo 1
 5    47 Femenino   600000 La democracia es preferible … Alguna… Adultos Tramo 3
 6    39 Masculino 1350000 La democracia es preferible … Muchas… Adultos Tramo 5
 7    42 Masculino 1100000 La democracia es preferible … Muchas… Adultos Tramo 5
 8    51 Masculino  800000 La democracia es preferible … Nunca   Adultos Tramo 4
 9    38 Masculino 1600000 A la gente como uno, nos da … Alguna… Adultos Tramo 5
10    45 Femenino   500000 La democracia es preferible … Nunca   Adultos Tramo 2
# … with 486 more rows, and abbreviated variable names ¹​jv_delincuentes,
#   ²​tramo_edad, ³​tramo_ingreso

Ahora, generemos una nueva variable llamada ingreso_minimo con la función ifelse().

proc_elsoc$ingreso_minimo <- ifelse(proc_elsoc$ingreso < 410000, "debajo minimo", "sobre minimo")

proc_elsoc[, c("ingreso", "ingreso_minimo")] #veamosla!

# A tibble: 496 × 2
   ingreso ingreso_minimo
     <dbl> <chr>         
 1 2700000 sobre minimo  
 2 1250000 sobre minimo  
 3  500000 sobre minimo  
 4       0 debajo minimo 
 5  600000 sobre minimo  
 6 1350000 sobre minimo  
 7 1100000 sobre minimo  
 8  800000 sobre minimo  
 9 1600000 sobre minimo  
10  500000 sobre minimo  
# … with 486 more rows
…
