Estadística Descriptiva - Práctica 5. Repaso procesamiento y análisis de datos en R
…
c03: altruismo social generalizado

c05_03: grado de confianza en carabineros

proc_elsoc <- elsoc_2022 %>% 
  dplyr::select(edad = m0_edad,
                sexo = m0_sexo,
                ingreso = m13,
                altruismo = c03,
                confianza_carab = c05_03)

proc_elsoc

# A tibble: 1,000 × 5
    edad sexo   ingreso altruismo confianza_carab
   <dbl> <chr>    <dbl>     <dbl>           <dbl>
 1    66 Hombre 1200000         2               3
 2    38 Hombre  500000         2               3
 3    70 Mujer       NA         1               3
 4    24 Mujer       NA         2               5
 5    56 Mujer   500000         2               3
 6    52 Mujer       NA         2               1
 7    64 Mujer       NA         2               5
 8    24 Mujer   530000         2               3
 9    32 Mujer   790000         2               3
10    60 Mujer   400000         2               4
# … with 990 more rows

4.2 Filtrar

Quedémonos con aquellos casos cuya edad sea mayor o igual a 15 años.

proc_elsoc <- proc_elsoc %>% dplyr::filter(edad >= 25)

proc_elsoc

# A tibble: 980 × 5
    edad sexo   ingreso altruismo confianza_carab
   <dbl> <chr>    <dbl>     <dbl>           <dbl>
 1    66 Hombre 1200000         2               3
 2    38 Hombre  500000         2               3
 3    70 Mujer       NA         1               3
 4    56 Mujer   500000         2               3
 5    52 Mujer       NA         2               1
 6    64 Mujer       NA         2               5
 7    32 Mujer   790000         2               3
 8    60 Mujer   400000         2               4
 9    43 Hombre 1000000         2               4
10    77 Mujer       NA         2               5
# … with 970 more rows

4.3 Recodificar

Recodifiquemos las variables sexo e ingreso:

proc_elsoc <- proc_elsoc %>% 
  dplyr::mutate(sexo = car::recode(sexo,
                            recodes = c("'Hombre' = 'Masculino'; 'Mujer' = 'Femenino'")),
                ingreso = car::recode(ingreso, 
                               recodes = c("-888 = NA; -999 = NA")))

proc_elsoc

# A tibble: 980 × 5
    edad sexo      ingreso altruismo confianza_carab
   <dbl> <chr>       <dbl>     <dbl>           <dbl>
 1    66 Masculino 1200000         2               3
 2    38 Masculino  500000         2               3
 3    70 Femenino       NA         1               3
 4    56 Femenino   500000         2               3
 5    52 Femenino       NA         2               1
 6    64 Femenino       NA         2               5
 7    32 Femenino   790000         2               3
 8    60 Femenino   400000         2               4
 9    43 Masculino 1000000         2               4
10    77 Femenino       NA         2               5
# … with 970 more rows
…
proc_elsoc

# A tibble: 980 × 5
    edad sexo      ingreso altruismo                                     confi…¹
   <dbl> <chr>       <dbl> <fct>                                         <fct>  
 1    66 Masculino 1200000 La mayoria de las veces se preocupan solo de… Algo   
 2    38 Masculino  500000 La mayoria de las veces se preocupan solo de… Algo   
 3    70 Femenino       NA La mayoria de las veces tratan de ayudar a l… Algo   
 4    56 Femenino   500000 La mayoria de las veces se preocupan solo de… Algo   
 5    52 Femenino       NA La mayoria de las veces se preocupan solo de… Nada   
 6    64 Femenino       NA La mayoria de las veces se preocupan solo de… Mucha  
 7    32 Femenino   790000 La mayoria de las veces se preocupan solo de… Algo   
 8    60 Femenino   400000 La mayoria de las veces se preocupan solo de… Bastan…
 9    43 Masculino 1000000 La mayoria de las veces se preocupan solo de… Bastan…
10    77 Femenino       NA La mayoria de las veces se preocupan solo de… Mucha  
# … with 970 more rows, and abbreviated variable name ¹​confianza_carab
…
En toda la base, tenemos 454 casos pérdidos. Ahora veamos cuántos hay por cada columna/variable.

colSums(is.na(proc_elsoc))

           edad            sexo         ingreso       altruismo confianza_carab 
              0               0             451               3               0 

Una vez identificamos los valores nulos, podemos proceder a removerlos de la base de datos. El comando na.omit() eliminará todas las filas que presenten casos perdidos.

proc_elsoc <- na.omit(proc_elsoc)

proc_elsoc

# A tibble: 528 × 5
    edad sexo      ingreso altruismo                                     confi…¹
   <dbl> <chr>       <dbl> <fct>                                         <fct>  
 1    66 Masculino 1200000 La mayoria de las veces se preocupan solo de… Algo   
 2    38 Masculino  500000 La mayoria de las veces se preocupan solo de… Algo   
 3    56 Femenino   500000 La mayoria de las veces se preocupan solo de… Algo   
 4    32 Femenino   790000 La mayoria de las veces se preocupan solo de… Algo   
 5    60 Femenino   400000 La mayoria de las veces se preocupan solo de… Bastan…
 6    43 Masculino 1000000 La mayoria de las veces se preocupan solo de… Bastan…
 7    59 Masculino 1200000 La mayoria de las veces se preocupan solo de… Poca   
 8    44 Femenino   150000 La mayoria de las veces se preocupan solo de… Bastan…
 9    51 Femenino   350000 La mayoria de las veces tratan de ayudar a l… Poca   
10    45 Femenino   200000 La mayoria de las veces se preocupan solo de… Bastan…
# … with 518 more rows, and abbreviated variable name ¹​confianza_carab

5 Transformar variables

En este ejemplo, transformaremos las variables edad e ingresos, y crearemos una nueva variable llamada año de la encuesta y otra llamada ingreso_minimo.

¡Veámos cómo se hace!

Generemos las nueva variable año:

proc_elsoc <- proc_elsoc %>% dplyr::mutate(ano = 2022)

proc_elsoc

# A tibble: 528 × 6
    edad sexo      ingreso altruismo                               confi…¹   ano
   <dbl> <chr>       <dbl> <fct>                                   <fct>   <dbl>
 1    66 Masculino 1200000 La mayoria de las veces se preocupan s… Algo     2022
 2    38 Masculino  500000 La mayoria de las veces se preocupan s… Algo     2022
 3    56 Femenino   500000 La mayoria de las veces se preocupan s… Algo     2022
 4    32 Femenino   790000 La mayoria de las veces se preocupan s… Algo     2022
 5    60 Femenino   400000 La mayoria de las veces se preocupan s… Bastan…  2022
 6    43 Masculino 1000000 La mayoria de las veces se preocupan s… Bastan…  2022
 7    59 Masculino 1200000 La mayoria de las veces se preocupan s… Poca     2022
 8    44 Femenino   150000 La mayoria de las veces se preocupan s… Bastan…  2022
 9    51 Femenino   350000 La mayoria de las veces tratan de ayud… Poca     2022
10    45 Femenino   200000 La mayoria de las veces se preocupan s… Bastan…  2022
# … with 518 more rows, and abbreviated variable name ¹​confianza_carab
…
Generemos nuevas variables para edad e ingresos dejándolas como tramos con case_when().

proc_elsoc <- proc_elsoc %>% 
  dplyr::mutate(tramo_edad = case_when(edad <= 29 ~ "Jovenes",
                                       edad >= 30 & edad <= 59 ~ "Adultos",
                                       edad >= 60 ~ "Adutos mayores"),
                tramo_ingreso = case_when(ingreso <= 250000 ~ "Tramo 1",
                                          ingreso > 250000 & ingreso <= 500000 ~ "Tramo 2",      
                                          ingreso > 500000 & ingreso <= 750000 ~ "Tramo 3",      
                                          ingreso > 750000 & ingreso <= 1000000 ~ "Tramo 4",       
                                          ingreso > 1000000 ~ "Tramo 5"))

proc_elsoc

# A tibble: 528 × 8
    edad sexo      ingreso altruismo               confi…¹   ano tramo…² tramo…³
   <dbl> <chr>       <dbl> <fct>                   <fct>   <dbl> <chr>   <chr>  
 1    66 Masculino 1200000 La mayoria de las vece… Algo     2022 Adutos… Tramo 5
 2    38 Masculino  500000 La mayoria de las vece… Algo     2022 Adultos Tramo 2
 3    56 Femenino   500000 La mayoria de las vece… Algo     2022 Adultos Tramo 2
 4    32 Femenino   790000 La mayoria de las vece… Algo     2022 Adultos Tramo 4
 5    60 Femenino   400000 La mayoria de las vece… Bastan…  2022 Adutos… Tramo 2
 6    43 Masculino 1000000 La mayoria de las vece… Bastan…  2022 Adultos Tramo 4
 7    59 Masculino 1200000 La mayoria de las vece… Poca     2022 Adultos Tramo 5
 8    44 Femenino   150000 La mayoria de las vece… Bastan…  2022 Adultos Tramo 1
 9    51 Femenino   350000 La mayoria de las vece… Poca     2022 Adultos Tramo 2
10    45 Femenino   200000 La mayoria de las vece… Bastan…  2022 Adultos Tramo 1
# … with 518 more rows, and abbreviated variable names ¹​confianza_carab,
#   ²​tramo_edad, ³​tramo_ingreso

Ahora, generemos una nueva variable llamada ingreso_minimo con la función if_else().

proc_elsoc <- proc_elsoc %>% 
  dplyr::mutate(ingreso_minimo = if_else(ingreso < 410000, "debajo minimo", "sobre minimo"))

proc_elsoc

# A tibble: 528 × 9
    edad sexo      ingreso altruismo       confi…¹   ano tramo…² tramo…³ ingre…⁴
   <dbl> <chr>       <dbl> <fct>           <fct>   <dbl> <chr>   <chr>   <chr>  
 1    66 Masculino 1200000 La mayoria de … Algo     2022 Adutos… Tramo 5 sobre …
 2    38 Masculino  500000 La mayoria de … Algo     2022 Adultos Tramo 2 sobre …
 3    56 Femenino   500000 La mayoria de … Algo     2022 Adultos Tramo 2 sobre …
 4    32 Femenino   790000 La mayoria de … Algo     2022 Adultos Tramo 4 sobre …
 5    60 Femenino   400000 La mayoria de … Bastan…  2022 Adutos… Tramo 2 debajo…
 6    43 Masculino 1000000 La mayoria de … Bastan…  2022 Adultos Tramo 4 sobre …
 7    59 Masculino 1200000 La mayoria de … Poca     2022 Adultos Tramo 5 sobre …
 8    44 Femenino   150000 La mayoria de … Bastan…  2022 Adultos Tramo 1 debajo…
 9    51 Femenino   350000 La mayoria de … Poca     2022 Adultos Tramo 2 debajo…
10    45 Femenino   200000 La mayoria de … Bastan…  2022 Adultos Tramo 1 debajo…
# … with 518 more rows, and abbreviated variable names ¹​confianza_carab,
#   ²​tramo_edad, ³​tramo_ingreso, ⁴​ingreso_minimo
…
